%YAML 1.1
%TAG !u! tag:unity3d.com,2011:
--- !u!21 &2100000
Material:
  serializedVersion: 6
  m_ObjectHideFlags: 0
  m_PrefabParentObject: {fileID: 0}
  m_PrefabInternal: {fileID: 0}
  m_Name: wall01b
  m_Shader: {fileID: 46, guid: 0000000000000000f000000000000000, type: 0}
  m_ShaderKeywords: _NORMALMAP _PARALLAXMAP
  m_LightmapFlags: 5
  m_EnableInstancingVariants: 0
  m_CustomRenderQueue: -1
  stringTagMap: {}
  disabledShaderPasses: []
  m_SavedProperties:
    serializedVersion: 3
    m_TexEnvs:
    - _BumpMap:
        m_Texture: {fileID: 2800000, guid: b9bb0b2f50a46374f89e3649b7f65f63, type: 3}
        m_Scale: {x: 1, y: 1}
        m_Offset: {x: 0, y: 0}
    - _Cube:
        m_Texture: {fileID: 0}
        m_Scale: {x: 1, y: 1}
        m_Offset: {x: 0, y: 0}
    - _DetailAlbedoMap:
        m_Texture: {fileID: 0}
        m_Scale: {x: 1, y: 1}
        m_Offset: {x: 0, y: 0}
    - _DetailMask:
        m_Texture: {fileID: 0}
        m_Scale: {x: 1, y: 1}
        m_Offset: {x: 0, y: 0}
    - _DetailNormalMap:
        m_Texture: {fileID: 0}
        m_Scale: {x: 1, y: 1}
        m_Offset: {x: 0, y: 0}
    - _EmissionMap:
        m_Texture: {fileID: 0}
        m_Scale: {x: 1, y: 1}
        m_Offset: {x: 0, y: 1}
    - _HeightMap:
        m_Texture: {fileID: 2800000, guid: d6ff921a849e33a4a926225c2e5b650a, type: 3}
        m_Scale: {x: 1, y: 1}
        m_Offset: {x: 0, y: 0}
    - _MainTex:
        m_Texture: {fileID: 2800000, guid: 9ca825f719c0b9743a8ab7e7f3adb42c, type: 3}
        m_Scale: {x: 1, y: 1}
        m_Offset: {x: 0, y: 1}
    - _MetallicGlossMap:
        m_Texture: {fileID: 0}
        m_Scale: {x: 1, y: 1}
        m_Offset: {x: 0, y: 0}
    - _OcclusionMap:
        m_Texture: {fileID: 2800000, guid: 02688a2935cdc6c46958f875a1fd75ff, type: 3}
        m_Scale: {x: 1, y: 1}
        m_Offset: {x: 0, y: 0}
    - _ParallaxMap:
        m_Texture: {fileID: 2800000, guid: d6ff921a849e33a4a926225c2e5b650a, type: 3}
        m_Scale: {x: 1, y: 1}
        m_Offset: {x: 0, y: 0}
    m_Floats:
    - _BumpScale: 1
    - _Cutoff: 0.5
    - _DIST_STEPS: 20
    - _DetailNormalMapScale: 1
    - _DstBlend: 0
    - _EmissionScaleUI: 0
    - _ExtrudeHeight: 0.05
    - _Glossiness: 0.155
    - _LightmapShading: 0.37307692
    - _Metallic: 0
    - _Mode: 0
    - _OcclusionStrength: 0.45
    - _Parallax: 0.015522384
    - _Rot: 0
    - _SHADOW_SMOOTH_STEPS: 4
    - _SHADOW_STEPS: 20
    - _SelfShadowStrength: 0.26923078
    - _ShadeRange: 0.02
    - _ShadingStrength: 0
    - _ShadowSmoothing: 2.478654
    - _Shininess: 0.5024539
    - _SrcBlend: 1
    - _UVSec: 0
    - _WAVELENGTH: 1
    - _WAVELENGTH_SHADOWS: 8
    - _ZWrite: 1
    - _distance_start: 10
    - _distance_transition: 20
    m_Colors:
    - _Color: {r: 1, g: 1, b: 1, a: 1}
    - _EmissionColor: {r: 0, g: 0, b: 0, a: 0}
    - _EmissionColorUI: {r: 1, g: 1, b: 1, a: 1}
    - _ReflectColor: {r: 1, g: 1, b: 1, a: 0.5}
    - _ReliefTransform: {r: 1, g: 1, b: 0, a: 0}
    - _SilhouetteUV_border: {r: 0, g: 1, b: 0, a: 1}
    - _SpecColor: {r: 0.46268654, g: 0.46268654, b: 0.46268654, a: 1}
--- !u!1002 &2100001
EditorExtensionImpl:
  serializedVersion: 6
